Quick start
…
We can take a look at this data by printing it to the console:

all_countries
#> # A tibble: 113,049 x 15
#>    date       un_region who_region country        iso_code cases_new cases_total
#>    <date>     <chr>     <chr>      <chr>          <chr>        <dbl>       <dbl>
#>  1 2020-01-03 Asia      EMRO       Afghanistan    AF               0           0
#>  2 2020-01-03 Europe    EURO       Albania        AL               0           0
#>  3 2020-01-03 Africa    AFRO       Algeria        DZ               0           0
#>  4 2020-01-03 Oceania   WPRO       American Samoa AS               0           0
#>  5 2020-01-03 Europe    EURO       Andorra        AD               0           0
#>  6 2020-01-03 Africa    AFRO       Angola         AO               0           0
#>  7 2020-01-03 Americas  AMRO       Anguilla       AI               0           0
#>  8 2020-01-03 Americas  AMRO       Antigua & Bar… AG               0           0
#>  9 2020-01-03 Americas  AMRO       Argentina      AR               0           0
#> 10 2020-01-03 Asia      EURO       Armenia        AM               0           0
#> # … with 113,039 more rows, and 8 more variables: deaths_new <dbl>,
#> #   deaths_total <dbl>, recovered_new <dbl>, recovered_total <dbl>,
#> #   hosp_new <dbl>, hosp_total <dbl>, tested_new <dbl>, tested_total <dbl>
…
Retrieving total cases and deaths for all countries

Using get_national_data(totals = TRUE) we can obtain total cases and deaths for all nations up to the latest date reported. This is useful to get a snapshot of the current running total for each country. Note how the data is sorted by the total number of cases:

all_countries_totals <- get_national_data(totals = TRUE, verbose = FALSE)
all_countries_totals
#> # A tibble: 236 x 7
#>    country        iso_code cases_total deaths_total recovered_total hosp_total
#>    <chr>          <chr>          <dbl>        <dbl>           <dbl>      <dbl>
#>  1 United States  US          31530214       564605               0          0
#>  2 India          IN          16263695       186920               0          0
#>  3 Brazil         BR          14122795       381475               0          0
#>  4 France         FR           5326261       101513               0          0
#>  5 Russia         RU           4744961       107501               0          0
#>  6 Turkey         TR           4501382        37329               0          0
#>  7 United Kingdom GB           4398435       127345               0          0
#>  8 Italy          IT           3921093       118388               0          0
#>  9 Spain          ES           3456886        77496               0          0
#> 10 Germany        DE           3245253        81158               0          0
#> # … with 226 more rows, and 1 more variable: tested_total <dbl>
…
